{
	"name": "Go:1.17.5",
	"build": {
		"dockerfile": "Dockerfile",
		"args": {}
	},
	"extensions": [
		"golang.go@0.29.0",
		"davidanson.vscode-markdownlint@0.45.0",
		"redhat.vscode-yaml@1.40.0",
		"ms-azuretools.vscode-docker@1.19.0"
	],
}